<?xml version="1.0" encoding="UTF-8" standalone="no"?>
<!-- Created with Inkscape (http://www.inkscape.org/) -->

<svg
   xmlns:dc="http://purl.org/dc/elements/1.1/"
   xmlns:cc="http://creativecommons.org/ns#"
   xmlns:rdf="http://www.w3.org/1999/02/22-rdf-syntax-ns#"
   xmlns:svg="http://www.w3.org/2000/svg"
   xmlns="http://www.w3.org/2000/svg"
   xmlns:sodipodi="http://sodipodi.sourceforge.net/DTD/sodipodi-0.dtd"
   xmlns:inkscape="http://www.inkscape.org/namespaces/inkscape"
   width="210mm"
   height="297mm"
   viewBox="0 0 210 297"
   version="1.1"
   id="svg8"
   sodipodi:docname="drawing.svg"
   inkscape:version="0.92.4 (5da689c313, 2019-01-14)">
  <defs
     id="defs2">
    <inkscape:path-effect
       effect="bounding_box"
       id="path-effect11421"
       is_visible="true"
       linkedpath=""
       visualbounds="false" />
    <inkscape:path-effect
       effect="bounding_box"
       id="path-effect11416"
       is_visible="true"
       linkedpath=""
       visualbounds="false" />
    <inkscape:path-effect
       effect="bounding_box"
       id="path-effect11414"
       is_visible="true"
       linkedpath=""
       visualbounds="false" />
  </defs>
  <sodipodi:namedview
     id="base"
     pagecolor="#ffffff"
     bordercolor="#666666"
     borderopacity="1.0"
     inkscape:pageopacity="0.0"
     inkscape:pageshadow="2"
     inkscape:zoom="0.73049944"
     inkscape:cx="496.78202"
     inkscape:cy="561.25984"
     inkscape:document-units="mm"
     inkscape:current-layer="layer1"
     showgrid="false"
     inkscape:window-width="1920"
     inkscape:window-height="1013"
     inkscape:window-x="-9"
     inkscape:window-y="-9"
     inkscape:window-maximized="1"
     showguides="true"
     inkscape:snap-to-guides="false"
     inkscape:snap-bbox="true"
     inkscape:snap-nodes="true"
     inkscape:snap-others="false"
     inkscape:snap-grids="false"
     inkscape:bbox-paths="false"
     inkscape:snap-global="true"
     inkscape:snap-bbox-edge-midpoints="false"
     inkscape:bbox-nodes="false"
     inkscape:object-nodes="true"
     inkscape:snap-page="false"
     inkscape:object-paths="false" />
  <metadata
     id="metadata5">
    <rdf:RDF>
      <cc:Work
         rdf:about="">
        <dc:format>image/svg+xml</dc:format>
        <dc:type
           rdf:resource="http://purl.org/dc/dcmitype/StillImage" />
      </cc:Work>
    </rdf:RDF>
  </metadata>
  <g
     inkscape:label="Layer 1"
     inkscape:groupmode="layer"
     id="layer1">
    <g
       id="g11429"
       style="stroke-width:2.11666656;stroke-miterlimit:4;stroke-dasharray:none"
       transform="translate(-45.99878)">
      <path
         inkscape:original-d="M 55.99486,3.4366388 H 204.10522 L 245.00136,45.495199 V 294.31548 H 55.99486 Z"
         inkscape:path-effect="#path-effect11421"
         inkscape:connector-curvature="0"
         id="rect11408"
         d="M 55.99486,3.4366388 H 204.10522 L 245.00136,45.495199 V 294.31548 H 55.99486 Z"
         style="fill:none;stroke:#000000;stroke-width:2.11666656;stroke-linecap:butt;stroke-linejoin:miter;stroke-miterlimit:4;stroke-dasharray:none;stroke-opacity:1" />
      <path
         sodipodi:nodetypes="ccc"
         inkscape:connector-curvature="0"
         id="rect11424"
         d="M 245.00136,45.495198 H 204.10522 V 3.4366388"
         style="fill:none;stroke:#000000;stroke-width:2.11666656;stroke-linecap:butt;stroke-linejoin:miter;stroke-miterlimit:4;stroke-dasharray:none;stroke-opacity:1" />
    </g>
    <rect
       style="fill-opacity:1;stroke:#000000;stroke-width:1.19710779;stroke-linecap:butt;stroke-linejoin:miter;stroke-miterlimit:4;stroke-dasharray:none;stroke-opacity:1"
       id="rect11431"
       width="162.82077"
       height="5.9902906"
       x="23.088945"
       y="185.63045" />
    <rect
       style="fill-opacity:1;stroke:#000000;stroke-width:1.19710779;stroke-linecap:butt;stroke-linejoin:miter;stroke-miterlimit:4;stroke-dasharray:none;stroke-opacity:1"
       id="rect11431-5"
       width="162.82079"
       height="5.9902906"
       x="23.088938"
       y="205.30609" />
    <rect
       style="fill-opacity:1;stroke:#000000;stroke-width:1.19710779;stroke-linecap:butt;stroke-linejoin:miter;stroke-miterlimit:4;stroke-dasharray:none;stroke-opacity:1"
       id="rect11431-5-2"
       width="162.8208"
       height="5.9902906"
       x="23.08893"
       y="224.98172" />
    <flowRoot
       xml:space="preserve"
       id="flowRoot11478"
       style="font-style:normal;font-weight:normal;font-size:192px;line-height:1.25;font-family:sans-serif;letter-spacing:0px;word-spacing:0px;fill-opacity:1;stroke:none"
       transform="matrix(0.31698448,0,0,0.31698448,-9.7838476,-50.915406)"><flowRegion
         id="flowRegion11480"
         style="font-size:192px;line-height:1.25"><rect
           id="rect11482"
           width="617.3858"
           height="253.25139"
           x="84.873436"
           y="669.40503"
           style="font-size:192px;line-height:1.25" /></flowRegion><flowPara
         id="flowPara11484" /></flowRoot>    <rect
       style="fill-opacity:1;stroke:#000000;stroke-width:1.19710779;stroke-linecap:butt;stroke-linejoin:miter;stroke-miterlimit:4;stroke-dasharray:none;stroke-opacity:1"
       id="rect11431-5-2-4-5-9"
       width="162.8208"
       height="5.9902906"
       x="23.08893"
       y="244.65736" />
    <rect
       style="fill-opacity:1;stroke:#000000;stroke-width:1.19710779;stroke-linecap:butt;stroke-linejoin:miter;stroke-miterlimit:4;stroke-dasharray:none;stroke-opacity:1"
       id="rect11431-5-2-4-5-9-1"
       width="162.8208"
       height="5.9902906"
       x="23.08893"
       y="264.33301" />
    <rect
       style="fill-opacity:1;stroke:#000000;stroke-width:1.19710779;stroke-linecap:butt;stroke-linejoin:miter;stroke-miterlimit:4;stroke-dasharray:none;stroke-opacity:1"
       id="rect11431-2"
       width="162.82079"
       height="5.9902906"
       x="23.088938"
       y="165.9548" />
    <text
       xml:space="preserve"
       style="font-style:normal;font-variant:normal;font-weight:normal;font-stretch:normal;font-size:50.79999924px;line-height:1.25;font-family:sans-serif;-inkscape-font-specification:'sans-serif, Normal';font-variant-ligatures:normal;font-variant-caps:normal;font-variant-numeric:normal;font-feature-settings:normal;text-align:start;letter-spacing:0px;word-spacing:0px;writing-mode:lr-tb;text-anchor:start;fill:#000000;fill-opacity:1;stroke:none;stroke-width:0.26458332"
       x="31.647964"
       y="117.35121"
       id="text11563"><tspan
         sodipodi:role="line"
         id="tspan11561"
         x="31.647964"
         y="117.35121"
         style="font-style:normal;font-variant:normal;font-weight:normal;font-stretch:normal;font-size:50.79999924px;font-family:sans-serif;-inkscape-font-specification:'sans-serif, Normal';font-variant-ligatures:normal;font-variant-caps:normal;font-variant-numeric:normal;font-feature-settings:normal;text-align:start;writing-mode:lr-tb;text-anchor:start;stroke-width:0.26458332">HTML</tspan></text>
    <rect
       style="fill-opacity:1;stroke:#000000;stroke-width:1.02005458;stroke-linecap:butt;stroke-linejoin:miter;stroke-miterlimit:4;stroke-dasharray:none;stroke-opacity:1"
       id="rect11431-2-4"
       width="114.8259"
       height="6.1673441"
       x="23.088938"
       y="22.515509" />
  </g>
</svg>
